HW3/wave.vcd
$version Generated by VerilatedVcd $end
$timescale 1s $end
 $scope module top $end
  $scope module test_top $end
   $var wire 1 D! rst_i $end
   $var wire 1 E! clk_i $end
   $var wire 32 I pc_wire [31:0] $end
   $var wire 1 J ce_wire $end
   $var wire 32 I if_inst_addr_o [31:0] $end
   $var wire 32 F! if_inst_o [31:0] $end
   $var wire 32 K if_id_inst_addr_o [31:0] $end
   $var wire 32 L if_id_inst_o [31:0] $end
   $var wire 32 $ id_inst_o [31:0] $end
   $var wire 32 % id_op1_o [31:0] $end
   $var wire 32 & id_op2_o [31:0] $end
   $var wire 1 ' id_reg_we_o $end
   $var wire 5 ( id_reg_waddr_o [4:0] $end
   $var wire 5 ) id_reg1_addr_o [4:0] $end
   $var wire 5 * id_reg2_addr_o [4:0] $end
   $var wire 1 + id_reg1_re_o $end
   $var wire 1 , id_reg2_re_o $end
   $var wire 32 - reg1_data_o [31:0] $end
   $var wire 32 . reg2_data_o [31:0] $end
   $var wire 32 M id_exe_op1_o [31:0] $end
   $var wire 32 N id_exe_op2_o [31:0] $end
   $var wire 1 O id_exe_reg_we_o $end
   $var wire 5 P id_exe_reg_waddr_o [4:0] $end
   $var wire 32 Q id_exe_inst_o [31:0] $end
   $var wire 5 / exe_reg_waddr_o [4:0] $end
   $var wire 1 0 exe_reg_we_o $end
   $var wire 32 1 exe_reg_wdata_o [31:0] $end
   $var wire 32 G! exe_mem_addr_o [31:0] $end
   $var wire 1 H! exe_mem_we_o $end
   $var wire 32 I! exe_mem_data_o [31:0] $end
   $var wire 4 J! exe_mem_op_o [3:0] $end
   $var wire 5 R exe_mem_reg_waddr_o [4:0] $end
   $var wire 1 S exe_mem_reg_we_o $end
   $var wire 32 T exe_mem_reg_wdata_o [31:0] $end
   $var wire 32 U exe_mem_mem_addr_o [31:0] $end
   $var wire 1 V exe_mem_mem_we_o $end
   $var wire 32 W exe_mem_mem_data_o [31:0] $end
   $var wire 4 X exe_mem_mem_op_o [3:0] $end
   $var wire 5 2 mem_reg_waddr_o [4:0] $end
   $var wire 1 3 mem_reg_we_o $end
   $var wire 32 4 mem_reg_wdata_o [31:0] $end
   $var wire 32 5 mem_mem_addr_o [31:0] $end
   $var wire 1 6 mem_mem_we_o $end
   $var wire 32 7 mem_mem_data_o [31:0] $end
   $var wire 1 8 mem_ram_ce_o $end
   $var wire 32 9 ram_data_o [31:0] $end
   $var wire 5 Y mem_wb_reg_waddr_o [4:0] $end
   $var wire 1 Z mem_wb_reg_we_o $end
   $var wire 32 [ mem_wb_reg_wdata_o [31:0] $end
   $var wire 6 : ctrl_stall_o [5:0] $end
   $var wire 1 \ id_stallreq_o $end
   $var wire 1 ] id_exe_inst_is_load_o $end
   $var wire 5 ^ id_exe_rd_o [4:0] $end
   $scope module regfile0 $end
    $var wire 1 E! clk_i $end
    $var wire 1 D! rst_i $end
    $var wire 1 Z we_i $end
    $var wire 5 Y waddr_i [4:0] $end
    $var wire 32 [ wdata_i [31:0] $end
    $var wire 1 + re1_i $end
    $var wire 5 ) raddr1_i [4:0] $end
    $var wire 1 , re2_i $end
    $var wire 5 * raddr2_i [4:0] $end
    $var wire 32 - rdata1_o [31:0] $end
    $var wire 32 . rdata2_o [31:0] $end
    $var wire 32 #! regs[0] [31:0] $end
    $var wire 32 $! regs[1] [31:0] $end
    $var wire 32 %! regs[2] [31:0] $end
    $var wire 32 &! regs[3] [31:0] $end
    $var wire 32 '! regs[4] [31:0] $end
    $var wire 32 (! regs[5] [31:0] $end
    $var wire 32 )! regs[6] [31:0] $end
    $var wire 32 *! regs[7] [31:0] $end
    $var wire 32 +! regs[8] [31:0] $end
    $var wire 32 ,! regs[9] [31:0] $end
    $var wire 32 -! regs[10] [31:0] $end
    $var wire 32 .! regs[11] [31:0] $end
    $var wire 32 /! regs[12] [31:0] $end
    $var wire 32 0! regs[13] [31:0] $end
    $var wire 32 1! regs[14] [31:0] $end
    $var wire 32 2! regs[15] [31:0] $end
    $var wire 32 3! regs[16] [31:0] $end
    $var wire 32 4! regs[17] [31:0] $end
    $var wire 32 5! regs[18] [31:0] $end
    $var wire 32 6! regs[19] [31:0] $end
    $var wire 32 7! regs[20] [31:0] $end
    $var wire 32 8! regs[21] [31:0] $end
    $var wire 32 9! regs[22] [31:0] $end
    $var wire 32 :! regs[23] [31:0] $end
    $var wire 32 ;! regs[24] [31:0] $end
    $var wire 32 <! regs[25] [31:0] $end
    $var wire 32 =! regs[26] [31:0] $end
    $var wire 32 >! regs[27] [31:0] $end
    $var wire 32 ?! regs[28] [31:0] $end
    $var wire 32 @! regs[29] [31:0] $end
    $var wire 32 A! regs[30] [31:0] $end
    $var wire 32 B! regs[31] [31:0] $end
    $var wire 32 # i [31:0] $end
   $upscope $end
   $var wire 32 M! MemSize [31:0] $end
   $var wire 32 N! MemAddrWidth [31:0] $end
   $scope module data_ram0 $end
    $var wire 32 R! RAM_SIZE [31:0] $end
    $var wire 32 S! RAM_ADDR_WIDTH [31:0] $end
    $var wire 1 E! clk_i $end
    $var wire 1 8 ce_i $end
    $var wire 32 5 addr_i [31:0] $end
    $var wire 1 6 we_i $end
    $var wire 32 7 data_i [31:0] $end
    $var wire 32 9 data_o [31:0] $end
    $var wire 1 J inst_ce_i $end
    $var wire 32 I pc_i [31:0] $end
    $var wire 32 F! inst_o [31:0] $end
    $var wire 21 H addr4 [20:0] $end
    $var wire 21 C! rom_addr4 [20:0] $end
   $upscope $end
   $scope module ctrl0 $end
    $var wire 1 O! clk_i $end
    $var wire 1 D! rst_i $end
    $var wire 1 \ stallreq_from_id_i $end
    $var wire 6 : stall_o [5:0] $end
   $upscope $end
   $scope module exe0 $end
    $var wire 1 D! rst_i $end
    $var wire 32 M op1_i [31:0] $end
    $var wire 32 N op2_i [31:0] $end
    $var wire 1 O reg_we_i $end
    $var wire 5 P reg_waddr_i [4:0] $end
    $var wire 32 Q inst_i [31:0] $end
    $var wire 5 / reg_waddr_o [4:0] $end
    $var wire 1 0 reg_we_o $end
    $var wire 32 1 reg_wdata_o [31:0] $end
    $var wire 1 H! mem_we_o $end
    $var wire 32 G! mem_addr_o [31:0] $end
    $var wire 32 I! mem_data_o [31:0] $end
    $var wire 4 J! mem_op_o [3:0] $end
    $var wire 1 P! stallreq_o $end
    $var wire 7 _ opcode [6:0] $end
    $var wire 3 ` funct3 [2:0] $end
    $var wire 7 a funct7 [6:0] $end
    $var wire 1 K! i_reg_we_o $end
    $var wire 32 ; i_reg_wdata_o [31:0] $end
    $var wire 1 L! r_reg_we_o $end
    $var wire 32 < r_reg_wdata_o [31:0] $end
    $var wire 1 = s_reg_we_o $end
    $var wire 32 Q! s_reg_wdata_o [31:0] $end
    $var wire 32 > s_mem_data_o [31:0] $end
    $var wire 32 ? s_mem_addr_o [31:0] $end
    $var wire 1 @ s_mem_we_o $end
    $var wire 4 A s_mem_op_o [3:0] $end
    $scope module exe_type_i0 $end
     $var wire 1 D! rst_i $end
     $var wire 32 M op1_i [31:0] $end
     $var wire 32 N op2_i [31:0] $end
     $var wire 32 Q inst_i [31:0] $end
     $var wire 32 ; reg_wdata_o [31:0] $end
     $var wire 1 K! reg_we_o $end
     $var wire 7 _ opcode [6:0] $end
     $var wire 3 ` funct3 [2:0] $end
     $var wire 7 a funct7 [6:0] $end
     $var wire 1 b op1_ge_op2_signed $end
     $var wire 1 c op1_ge_op2_unsigned $end
     $var wire 32 d sr_shift [31:0] $end
     $var wire 32 e sr_shift_mask [31:0] $end
     $var wire 1 f isType_i $end
    $upscope $end
    $scope module exe_type_r0 $end
     $var wire 1 D! rst_i $end
     $var wire 32 M op1_i [31:0] $end
     $var wire 32 N op2_i [31:0] $end
     $var wire 32 Q inst_i [31:0] $end
     $var wire 32 < reg_wdata_o [31:0] $end
     $var wire 1 L! reg_we_o $end
     $var wire 7 _ opcode [6:0] $end
     $var wire 3 ` funct3 [2:0] $end
     $var wire 7 a funct7 [6:0] $end
     $var wire 1 b op1_ge_op2_signed $end
     $var wire 1 c op1_ge_op2_unsigned $end
     $var wire 32 d sr_shift [31:0] $end
     $var wire 32 e sr_shift_mask [31:0] $end
     $var wire 1 g isType_r $end
    $upscope $end
    $scope module exe_type_s_l0 $end
     $var wire 1 D! rst_i $end
     $var wire 32 M op1_i [31:0] $end
     $var wire 32 N op2_i [31:0] $end
     $var wire 32 Q inst_i [31:0] $end
     $var wire 32 Q! reg_wdata_o [31:0] $end
     $var wire 1 = reg_we_o $end
     $var wire 32 ? mem_addr_o [31:0] $end
     $var wire 32 > mem_data_o [31:0] $end
     $var wire 1 @ mem_we_o $end
     $var wire 4 A mem_op_o [3:0] $end
     $var wire 7 _ opcode [6:0] $end
     $var wire 3 ` funct3 [2:0] $end
     $var wire 32 h load_addr_offset [31:0] $end
     $var wire 32 i store_addr_offset [31:0] $end
    $upscope $end
   $upscope $end
   $scope module exe_mem0 $end
    $var wire 1 D! rst_i $end
    $var wire 1 E! clk_i $end
    $var wire 5 / reg_waddr_i [4:0] $end
    $var wire 1 0 reg_we_i $end
    $var wire 32 1 reg_wdata_i [31:0] $end
    $var wire 5 R reg_waddr_o [4:0] $end
    $var wire 1 S reg_we_o $end
    $var wire 32 T reg_wdata_o [31:0] $end
    $var wire 1 H! mem_we_i $end
    $var wire 32 G! mem_addr_i [31:0] $end
    $var wire 32 I! mem_data_i [31:0] $end
    $var wire 4 J! mem_op_i [3:0] $end
    $var wire 1 V mem_we_o $end
    $var wire 32 U mem_addr_o [31:0] $end
    $var wire 32 W mem_data_o [31:0] $end
    $var wire 4 X mem_op_o [3:0] $end
   $upscope $end
   $scope module id0 $end
    $var wire 1 D! rst_i $end
    $var wire 32 K inst_addr_i [31:0] $end
    $var wire 32 L inst_i [31:0] $end
    $var wire 5 ^ exe_rd_i [4:0] $end
    $var wire 1 ] pre_inst_is_load_i $end
    $var wire 32 - reg1_rdata_i [31:0] $end
    $var wire 32 . reg2_rdata_i [31:0] $end
    $var wire 5 / exe_reg_waddr_i [4:0] $end
    $var wire 32 1 exe_reg_wdata_i [31:0] $end
    $var wire 1 0 exe_reg_we_i $end
    $var wire 5 2 mem_reg_waddr_i [4:0] $end
    $var wire 32 4 mem_reg_wdata_i [31:0] $end
    $var wire 1 3 mem_reg_we_i $end
    $var wire 5 ) reg1_raddr_o [4:0] $end
    $var wire 5 * reg2_raddr_o [4:0] $end
    $var wire 1 + reg1_re_o $end
    $var wire 1 , reg2_re_o $end
    $var wire 32 $ inst_o [31:0] $end
    $var wire 32 % op1_o [31:0] $end
    $var wire 32 & op2_o [31:0] $end
    $var wire 1 ' reg_we_o $end
    $var wire 5 ( reg_waddr_o [4:0] $end
    $var wire 1 \ stallreq_o $end
    $var wire 32 B op1_o_final [31:0] $end
    $var wire 32 C op2_o_final [31:0] $end
    $var wire 7 j funct7 [6:0] $end
    $var wire 7 k opcode [6:0] $end
    $var wire 3 l funct3 [2:0] $end
    $var wire 5 m rd [4:0] $end
    $var wire 5 n rs1 [4:0] $end
    $var wire 5 o rs2 [4:0] $end
    $var wire 1 \ is_load_hazard $end
    $var wire 5 p i_reg1_raddr_o [4:0] $end
    $var wire 5 q i_reg2_raddr_o [4:0] $end
    $var wire 1 r i_reg1_re_o $end
    $var wire 1 s i_reg2_re_o $end
    $var wire 32 D i_op1_o [31:0] $end
    $var wire 32 t i_op2_o [31:0] $end
    $var wire 1 u i_reg_we_o $end
    $var wire 5 v i_reg_waddr_o [4:0] $end
    $var wire 5 w r_reg1_raddr_o [4:0] $end
    $var wire 5 x r_reg2_raddr_o [4:0] $end
    $var wire 1 y r_reg1_re_o $end
    $var wire 1 z r_reg2_re_o $end
    $var wire 32 E r_op1_o [31:0] $end
    $var wire 32 F r_op2_o [31:0] $end
    $var wire 1 { r_reg_we_o $end
    $var wire 5 | r_reg_waddr_o [4:0] $end
    $scope module inst_type_i $end
     $var wire 32 L inst_i [31:0] $end
     $var wire 32 - reg1_rdata_i [31:0] $end
     $var wire 5 p reg1_raddr_o [4:0] $end
     $var wire 5 q reg2_raddr_o [4:0] $end
     $var wire 1 r reg1_re_o $end
     $var wire 1 s reg2_re_o $end
     $var wire 32 D op1_o [31:0] $end
     $var wire 32 t op2_o [31:0] $end
     $var wire 1 u reg_we_o $end
     $var wire 5 v reg_waddr_o [4:0] $end
     $var wire 7 k opcode [6:0] $end
     $var wire 3 l funct3 [2:0] $end
     $var wire 7 j funct7 [6:0] $end
     $var wire 5 o shamt [4:0] $end
     $var wire 5 m rd [4:0] $end
     $var wire 5 n rs1 [4:0] $end
     $var wire 5 o rs2 [4:0] $end
     $var wire 1 } isType_i $end
    $upscope $end
    $scope module inst_type_r $end
     $var wire 32 L inst_i [31:0] $end
     $var wire 32 - reg1_rdata_i [31:0] $end
     $var wire 32 . reg2_rdata_i [31:0] $end
     $var wire 5 w reg1_raddr_o [4:0] $end
     $var wire 5 x reg2_raddr_o [4:0] $end
     $var wire 1 y reg1_re_o $end
     $var wire 1 z reg2_re_o $end
     $var wire 32 E op1_o [31:0] $end
     $var wire 32 F op2_o [31:0] $end
     $var wire 1 { reg_we_o $end
     $var wire 5 | reg_waddr_o [4:0] $end
     $var wire 7 k opcode [6:0] $end
     $var wire 3 l funct3 [2:0] $end
     $var wire 7 j funct7 [6:0] $end
     $var wire 5 o shamt [4:0] $end
     $var wire 5 m rd [4:0] $end
     $var wire 5 n rs1 [4:0] $end
     $var wire 5 o rs2 [4:0] $end
     $var wire 1 ~ isType_r $end
     $var wire 1 !! isType_m $end
    $upscope $end
   $upscope $end
   $scope module id_exe0 $end
    $var wire 1 D! rst_i $end
    $var wire 1 E! clk_i $end
    $var wire 32 % op1_i [31:0] $end
    $var wire 32 & op2_i [31:0] $end
    $var wire 1 ' reg_we_i $end
    $var wire 5 ( reg_waddr_i [4:0] $end
    $var wire 32 $ inst_i [31:0] $end
    $var wire 1 ] inst_is_load_o $end
    $var wire 5 ^ rd_o [4:0] $end
    $var wire 6 : stall_i [5:0] $end
    $var wire 32 M op1_o [31:0] $end
    $var wire 32 N op2_o [31:0] $end
    $var wire 1 O reg_we_o $end
    $var wire 5 P reg_waddr_o [4:0] $end
    $var wire 32 Q inst_o [31:0] $end
    $var wire 7 G opcode [6:0] $end
   $upscope $end
   $scope module if_id0 $end
    $var wire 1 E! clk_i $end
    $var wire 1 D! rst_i $end
    $var wire 32 I inst_addr_i [31:0] $end
    $var wire 32 F! inst_i [31:0] $end
    $var wire 6 : stall_i [5:0] $end
    $var wire 32 K inst_addr_o [31:0] $end
    $var wire 32 L inst_o [31:0] $end
   $upscope $end
   $scope module mem0 $end
    $var wire 1 D! rst_i $end
    $var wire 5 R reg_waddr_i [4:0] $end
    $var wire 1 S reg_we_i $end
    $var wire 32 T reg_wdata_i [31:0] $end
    $var wire 1 V mem_we_i $end
    $var wire 32 U mem_addr_i [31:0] $end
    $var wire 32 W mem_data_i [31:0] $end
    $var wire 4 X mem_op_i [3:0] $end
    $var wire 32 9 ram_data_i [31:0] $end
    $var wire 32 5 ram_addr_o [31:0] $end
    $var wire 1 6 ram_w_request_o $end
    $var wire 32 7 ram_data_o [31:0] $end
    $var wire 1 8 ram_ce_o $end
    $var wire 5 2 reg_waddr_o [4:0] $end
    $var wire 1 3 reg_we_o $end
    $var wire 32 4 reg_wdata_o [31:0] $end
    $var wire 2 "! ram_addr_offset [1:0] $end
   $upscope $end
   $scope module mem_wb0 $end
    $var wire 1 D! rst_i $end
    $var wire 1 E! clk_i $end
    $var wire 5 2 reg_waddr_i [4:0] $end
    $var wire 1 3 reg_we_i $end
    $var wire 32 4 reg_wdata_i [31:0] $end
    $var wire 5 Y reg_waddr_o [4:0] $end
    $var wire 1 Z reg_we_o $end
    $var wire 32 [ reg_wdata_o [31:0] $end
   $upscope $end
   $scope module pc_reg0 $end
    $var wire 1 E! clk_i $end
    $var wire 1 D! rst_i $end
    $var wire 6 : stall_i [5:0] $end
    $var wire 32 I pc_o [31:0] $end
    $var wire 1 J ce_o $end
   $upscope $end
  $upscope $end
  $var wire 1 D! rst_i $end
  $var wire 1 E! clk_i $end
 $upscope $end
$enddefinitions $end


#1
b00000000000000000000000000100000 #
b00000000000000000000000000010011 $
b00000000000000000000000000000000 %
b00000000000000000000000000000000 &
0'
b00000 (
b00000 )
b00000 *
0+
0,
b00000000000000000000000000000000 -
b00000000000000000000000000000000 .
b00000 /
00
b00000000000000000000000000000000 1
b00000 2
03
b00000000000000000000000000000000 4
b00000000000000000000000000000000 5
06
b00000000000000000000000000000000 7
08
b00000000000000000000000000000000 9
b000000 :
b00000000000000000000000000000000 ;
b00000000000000000000000000000000 <
0=
b00000000000000000000000000000000 >
b00000000000000000000000000000000 ?
0@
b0000 A
b00000000000000000000000000000000 B
b00000000000000000000000000000000 C
b00000000000000000000000000000000 D
b00000000000000000000000000000000 E
b00000000000000000000000000000000 F
b0010011 G
b000000000000000000000 H
b00000000000000000000000000000000 I
0J
b00000000000000000000000000000000 K
b00000000000000000000000000000000 L
b00000000000000000000000000000000 M
b00000000000000000000000000000000 N
0O
b00000 P
b00000000000000000000000000000000 Q
b00000 R
0S
b00000000000000000000000000000000 T
b00000000000000000000000000000000 U
0V
b00000000000000000000000000000000 W
b0000 X
b00000 Y
0Z
b00000000000000000000000000000000 [
0\
0]
b00000 ^
b0000000 _
b000 `
b0000000 a
1b
1c
b00000000000000000000000000000000 d
b11111111111111111111111111111111 e
0f
0g
b00000000000000000000000000000000 h
b00000000000000000000000000000000 i
b0000000 j
b0000000 k
b000 l
b00000 m
b00000 n
b00000 o
b00000 p
b00000 q
0r
0s
b00000000000000000000000000000000 t
0u
b00000 v
b00000 w
b00000 x
0y
0z
0{
b00000 |
0}
0~
0!!
b00 "!
b00000000000000000000000000000000 #!
b00000000000000000000000000000000 $!
b00000000000000000000000000000000 %!
b00000000000000000000000000000000 &!
b00000000000000000000000000000000 '!
b00000000000000000000000000000000 (!
b00000000000000000000000000000000 )!
b00000000000000000000000000000000 *!
b00000000000000000000000000000000 +!
b00000000000000000000000000000000 ,!
b00000000000000000000000000000000 -!
b00000000000000000000000000000000 .!
b00000000000000000000000000000000 /!
b00000000000000000000000000000000 0!
b00000000000000000000000000000000 1!
b00000000000000000000000000000000 2!
b00000000000000000000000000000000 3!
b00000000000000000000000000000000 4!
b00000000000000000000000000000000 5!
b00000000000000000000000000000000 6!
b00000000000000000000000000000000 7!
b00000000000000000000000000000000 8!
b00000000000000000000000000000000 9!
b00000000000000000000000000000000 :!
b00000000000000000000000000000000 ;!
b00000000000000000000000000000000 <!
b00000000000000000000000000000000 =!
b00000000000000000000000000000000 >!
b00000000000000000000000000000000 ?!
b00000000000000000000000000000000 @!
b00000000000000000000000000000000 A!
b00000000000000000000000000000000 B!
b000000000000000000000 C!
1D!
0E!
b00000000000000000000000000000000 F!
b00000000000000000000000000000000 G!
0H!
b00000000000000000000000000000000 I!
b0000 J!
0K!
0L!
b00000000001000000000000000000000 M!
b00000000000000000000000000010101 N!
0O!
0P!
b00000000000000000000000000000000 Q!
b00000000001000000000000000000000 R!
b00000000000000000000000000010101 S!
#2
b00000000000000000000000000010011 L
b00000000000000000000000000010011 Q
1S
b0010011 _
1f
b0010011 k
1r
1u
1}
1E!
#3
0E!
#4
1E!
#5
0E!
#6
1E!
#7
0E!
#8
1E!
#9
0E!
#10
1E!
#11
1'
1+
10
13
0D!
0E!
1K!
#12
0'
0+
1J
b00000000000000000000000000000000 L
1O
1Z
b0000000 k
0r
0u
0}
1E!
b11111111111111110001000110110111 F!
#13
0E!
#14
b11111111111111110001000110110111 $
b11111111111111110001000000000000 %
1'
b00011 (
b11111111111111110001000000000000 B
b0110111 G
b00000000000000000000000000000100 I
b11111111111111110001000110110111 L
0O
b1111111 j
b0110111 k
b001 l
b00011 m
b11110 n
b11111 o
b000000000000000000100 C!
1E!
b11110000101100011000000110010011 F!
#15
0E!
#16
b11110000101100011000000110010011 $
b11111111111111111111111100001011 &
b00011 )
1+
b00011 /
b11111111111111110001000000000000 1
b00000000000000000000000000000000 B
b11111111111111111111111100001011 C
b0010011 G
b00000000000000000000000000001000 I
b00000000000000000000000000000100 K
b11110000101100011000000110010011 L
b11111111111111110001000000000000 M
1O
b00011 P
b11111111111111110001000110110111 Q
b00011 ^
b0110111 _
b001 `
b1111111 a
0b
b11111111111111110001000000000000 d
0f
b11111111111111111111111111111111 h
b11111111111111111111111111100011 i
b1111000 j
b0010011 k
b000 l
b00011 n
b01011 o
b00011 p
1r
b11111111111111111111111100001011 t
1u
b00011 v
1}
b000000000000000001000 C!
1E!
b00000000000000001111001000110111 F!
0K!
#17
0E!
#18
b00000000000000001111001000110111 $
b00000000000000001111000000000000 %
b00000000000000000000000000000000 &
b00100 (
b00000 )
0+
b11111111111111110000111100001011 1
b00011 2
b11111111111111110001000000000000 4
b11111111111111110000111100001011 ;
b00000000000000001111000000000000 B
b00000000000000000000000000000000 C
b0110111 G
b00000000000000000000000000001100 I
b00000000000000000000000000001000 K
b00000000000000001111001000110111 L
b11111111111111111111111100001011 N
b11110000101100011000000110010011 Q
b00011 R
b11111111111111110001000000000000 T
b0010011 _
b000 `
b1111000 a
0c
b00000000000111111111111111100010 d
b00000000000111111111111111111111 e
1f
b11111111111111111111111100001011 h
b11111111111111111111111100000011 i
b0000000 j
b0110111 k
b111 l
b00100 m
b00001 n
b00000 o
b00000 p
0r
b00000000000000000000000000000000 t
0u
b00000 v
0}
b000000000000000001100 C!
1E!
b00001010101100100000001000010011 F!
1K!
#19
0E!
#20
b00001010101100100000001000010011 $
b00000000000000000000000010101011 &
b00100 )
1+
b00100 /
b00000000000000001111000000000000 1
b11111111111111110000111100001011 4
b00000000000000000000000000000000 ;
b00000000000000000000000000000000 B
b00000000000000000000000010101011 C
b0010011 G
b00000000000000000000000000010000 I
b00000000000000000000000000001100 K
b00001010101100100000001000010011 L
b00000000000000001111000000000000 M
b00000000000000000000000000000000 N
b00100 P
b00000000000000001111001000110111 Q
b11111111111111110000111100001011 T
b00011 Y
b11111111111111110001000000000000 [
b00100 ^
b0110111 _
b111 `
b0000000 a
1b
1c
b00000000000000001111000000000000 d
b11111111111111111111111111111111 e
0f
b00000000000000000000000000000000 h
b00000000000000000000000000000100 i
b0000101 j
b0010011 k
b000 l
b00100 n
b01011 o
b00100 p
1r
b00000000000000000000000010101011 t
1u
b00100 v
1}
b000000000000000010000 C!
1E!
b00000000000000000000001010010111 F!
0K!
#21
0E!
#22
b00000000000000000000001010010111 $
b00000000000000000000000000010000 %
b00000000000000000000000000000000 &
b00101 (
b00000 )
0+
b00000000000000001111000010101011 1
b00100 2
b00000000000000001111000000000000 4
b00000000000000001111000010101011 ;
b00000000000000000000000000010000 B
b00000000000000000000000000000000 C
b0010111 G
b00000000000000000000000000010100 I
b00000000000000000000000000010000 K
b00000000000000000000001010010111 L
b00000000000000000000000010101011 N
b00001010101100100000001000010011 Q
b00100 R
b00000000000000001111000000000000 T
b11111111111111110000111100001011 [
b0010011 _
b000 `
b0000101 a
b00000000000000000000000000011110 d
b00000000000111111111111111111111 e
1f
b00000000000000000000000010101011 h
b00000000000000000000000010100100 i
b0000000 j
b0010111 k
b00101 m
b00000 n
b00000 o
b00000 p
0r
b00000000000000000000000000000000 t
0u
b00000 v
0}
b11111111111111110001000000000000 &!
b000000000000000010100 C!
1E!
b00000010000000101000001010010011 F!
1K!
#23
0E!
#24
b00000010000000101000001010010011 $
b00000000000000000000000000100000 &
b00101 )
1+
b00101 /
b00000000000000000000000000010000 1
b00000000000000001111000010101011 4
b00000000000000000000000000000000 ;
b00000000000000000000000000000000 B
b00000000000000000000000000100000 C
b0010011 G
b00000000000000000000000000011000 I
b00000000000000000000000000010100 K
b00000010000000101000001010010011 L
b00000000000000000000000000010000 M
b00000000000000000000000000000000 N
b00101 P
b00000000000000000000001010010111 Q
b00000000000000001111000010101011 T
b00100 Y
b00000000000000001111000000000000 [
b00101 ^
b0010111 _
b0000000 a
b00000000000000000000000000010000 d
b11111111111111111111111111111111 e
0f
b00000000000000000000000000000000 h
b00000000000000000000000000000101 i
b0000001 j
b0010011 k
b00101 n
b00101 p
1r
b00000000000000000000000000100000 t
1u
b00101 v
1}
b11111111111111110000111100001011 &!
b000000000000000011000 C!
1E!
b00000000000000101001001000000011 F!
0K!
#25
0E!
#26
b00000000000000101001001000000011 $
b00000000000000000000000000110000 %
b00000000000000000000000000000000 &
b00100 (
b00000000000000000000000000110000 1
b00101 2
b00000000000000000000000000010000 4
b00000000000000000000000000110000 ;
b00000000000000000000000000000000 C
b0000011 G
b00000000000000000000000000011100 I
b00000000000000000000000000011000 K
b00000000000000101001001000000011 L
b00000000000000000000000000100000 N
b00000010000000101000001010010011 Q
b00101 R
b00000000000000000000000000010000 T
b00000000000000001111000010101011 [
b0010011 _
b0000001 a
0b
0c
1f
b00000000000000000000000000100000 h
b00000000000000000000000000100101 i
b0000000 j
b0000011 k
b001 l
b00100 m
b00000 p
0r
b00000000000000000000000000000000 t
0u
b00000 v
0}
b00000000000000001111000000000000 '!
b000000000000000011100 C!
1E!
b00000000001100100000000000100011 F!
1K!
#27
0E!
#28
b00000000001100100000000000100011 $
b00000000000000000000000000000000 %
b11111111111111110000111100001011 &
0'
b00000 (
b00100 )
b00011 *
1,
b00000000000000001111000010101011 -
b11111111111111110000111100001011 .
b00100 /
b00000000000000000000000000000000 1
b00000000000000000000000000110000 4
b00000000000000000000000000000000 ;
1=
b00000000000000000000000000110000 ?
b1010 A
b00000000000000001111000010101011 B
b11111111111111110000111100001011 C
b0100011 G
b00000000000000000000000000100000 I
b00000000000000000000000000011100 K
b00000000001100100000000000100011 L
b00000000000000000000000000110000 M
b00000000000000000000000000000000 N
b00100 P
b00000000000000101001001000000011 Q
b00000000000000000000000000110000 T
b00101 Y
b00000000000000000000000000010000 [
1]
b00100 ^
b0000011 _
b001 `
b0000000 a
1b
1c
b00000000000000000000000000110000 d
0f
b00000000000000000000000000000000 h
b00000000000000000000000000000100 i
b0100011 k
b000 l
b00000 m
b00100 n
b00011 o
b00000000000000001111000010101011 '!
b000000000000000100000 C!
1E!
b00000000101000000000000100010011 F!
b00000000000000000000000000110000 G!
b1010 J!
0K!
#29
0E!
#30
b00000000101000000000000100010011 $
b00000000000000000000000000001010 &
1'
b00010 (
b00000 )
b00000 *
0,
b00000000000000000000000000000000 -
b00000000000000000000000000000000 .
b00000 /
00
b00100 2
b00000000000000000000000000000000 4
0=
b11111111111111110000111100001011 >
b00000000000000000000000000000000 ?
1@
b0001 A
b00000000000000000000000000000000 B
b00000000000000000000000000001010 C
b0010011 G
b00000000000000000000000000100100 I
b00000000000000000000000000100000 K
b00000000101000000000000100010011 L
b00000000000000000000000000000000 M
b11111111111111110000111100001011 N
0O
b00000 P
b00000000001100100000000000100011 Q
b00100 R
b00000000000000000000000000000000 T
b00000000000000000000000000110000 U
b1010 X
b00000000000000000000000000110000 [
0]
b00000 ^
b0100011 _
b000 `
0c
b00000000000000000000000000000000 d
b00000000000111111111111111111111 e
b00000000000000000000000000000011 h
b00000000000000000000000000000000 i
b0010011 k
b00010 m
b00000 n
b01010 o
1r
b00000000000000000000000000001010 t
1u
b00010 v
1}
b00000000000000000000000000010000 (!
b000000000000000100100 C!
1E!
b00000000101000000000110100010011 F!
b00000000000000000000000000000000 G!
1H!
b11111111111111110000111100001011 I!
b0001 J!
#31
0E!
#32
b00000000101000000000110100010011 $
b11010 (
b00010 /
10
b00000000000000000000000000001010 1
b00000 2
03
16
b11111111111111110001000100001011 7
18
b11111111111111110001000110110111 9
b00000000000000000000000000001010 ;
b00000000000000000000000000000000 >
0@
b0000 A
b00000000000000000000000000101000 I
b00000000000000000000000000100100 K
b00000000101000000000110100010011 L
b00000000000000000000000000001010 N
1O
b00010 P
b00000000101000000000000100010011 Q
b00000 R
0S
b00000000000000000000000000000000 U
1V
b11111111111111110000111100001011 W
b0001 X
b00100 Y
b00000000000000000000000000000000 [
b00010 ^
b0010011 _
0b
b00000000001111111111111111111111 e
1f
b00000000000000000000000000001010 h
b00000000000000000000000000000010 i
b11010 m
b11010 v
b00000000000000000000000000110000 (!
b000000000000000101000 C!
1E!
b00000000000000100000010100000011 F!
0H!
b00000000000000000000000000000000 I!
b0000 J!
1K!
#33
0E!
#34
b00000000000000100000010100000011 $
b00000000000000000000000000000000 &
b01010 (
b00100 )
b11010 /
b00010 2
13
b00000000000000000000000000001010 4
06
b00000000000000000000000000000000 7
08
b00000000000000000000000000000000 9
b00000000000000000000000000000000 C
b0000011 G
b00000000000000000000000000101100 I
b00000000000000000000000000101000 K
b00000000000000100000010100000011 L
b11010 P
b00000000101000000000110100010011 Q
b00010 R
1S
b00000000000000000000000000001010 T
0V
b00000000000000000000000000000000 W
b0000 X
b00000 Y
0Z
b11010 ^
b00000000000000000000000000011010 i
b0000011 k
b01010 m
b00100 n
b00000 o
0r
b00000000000000000000000000000000 t
0u
b00000 v
0}
b00000000000000000000000000000000 '!
b000000000000000101100 C!
1E!
b00000000101000000000110110010011 F!
#35
0E!
